BirdCast Migration Data for Spring 2026 – Stat 334 (Data Visualization) Blog
…
bird_cast_all <- bind_rows(
  bird_cast_slc |> mutate(location = "St. Lawrence County"),
  bird_cast_fc  |> mutate(location = "Fairfax County"),
  bird_cast_mc  |> mutate(location = "Monroe County")
) |>
  arrange(date)

weather_combined <- bind_rows(weather_slc, weather_fc, weather_mc)
bird_weather <- bird_cast_all |>
  left_join(weather_combined, by = c("date" = "DATE", "location" = "location"))
bird_weather

# A tibble: 186 × 9
   date       birds flight_speed location          prcp  tmax  tmin  tavg   snow
   <date>     <dbl>        <dbl> <chr>            <dbl> <dbl> <dbl> <dbl>  <dbl>
 1 2026-03-01  2900           NA St. Lawrence … 0.02     26.5   1.5   NaN 0.2   
 2 2026-03-01  1100           25 Fairfax County 0        58.3  32.3    46 0     
 3 2026-03-01   400           NA Monroe County  0.0005   82.5  69.7   NaN 0     
 4 2026-03-02 10300           13 St. Lawrence … 0        21   -16     NaN 0     
 5 2026-03-02     0           NA Fairfax County 0.00263  46    28      36 0.0211
 6 2026-03-02   700           NA Monroe County  0.08     82.3  72     NaN 0     
 7 2026-03-03  1700           NA St. Lawrence … 0        40    -5     NaN 0     
 8 2026-03-03 10400           28 Fairfax County 0.211    38.3  29.3    35 0.842 
 9 2026-03-03  1600           18 Monroe County  0.0005   83    72.6    77 0     
10 2026-03-04  4300           NA St. Lawrence … 0        44    31     NaN 0     
# ℹ 176 more rows
…
